Parses a TCX file into a act_tbl — parse_tcx • activatr
…
    See also

    https://en.wikipedia.org/wiki/Training_Center_XML

    Examples

example_tcx_file <- system.file(
  "extdata",
  "running_example.tcx.gz",
  package = "activatr"
)
act_tbl <- parse_tcx(example_tcx_file)
print(act_tbl, n = 5)
#> # A tibble: 4,442 × 4
#>     lat   lon   ele time               
#> * <dbl> <dbl> <dbl> <dttm>             
#> 1  37.8 -122.  17   2018-11-03 14:24:45
#> 2  37.8 -122.  16.8 2018-11-03 14:24:46
#> 3  37.8 -122.  17   2018-11-03 14:24:48
#> 4  37.8 -122.  17   2018-11-03 14:24:49
#> 5  37.8 -122.  17.2 2018-11-03 14:24:50
#> # ℹ 4,437 more rows
…
